<?xml version="1.0" encoding="UTF-8" standalone="no"?>
<svg width="38px" height="19px" viewBox="0 0 38 19" version="1.1" xmlns="http://www.w3.org/2000/svg" xmlns:xlink="http://www.w3.org/1999/xlink">
    <!-- Generator: Sketch 3.6.1 (26313) - http://www.bohemiancoding.com/sketch -->
    <title>Angle up</title>
    <desc>Created with Sketch.</desc>
    <defs></defs>
    <g id="Page-1" stroke="none" stroke-width="1" fill="none" fill-rule="evenodd">
        <g id="Icons-(Pictos)" transform="translate(-680.000000, -3132.000000)" fill="#231F1F">
            <g id="Action" transform="translate(101.000000, 1775.000000)">
                <g id="Angle-up" transform="translate(579.000000, 1357.000000)">
                    <path d="M30.873637,0 L18.751632,12.1221416 L6.62962707,0 L0,0 L15.4367502,15.4370234 L18.751632,18.7517687 L22.0665139,15.4370234 L37.5032641,0 L30.873637,0 Z" id="Page-1-Copy-3" transform="translate(18.751700, 9.375884) scale(-1, -1) translate(-18.751700, -9.375884) "></path>
                </g>
            </g>
        </g>
    </g>
</svg>